{
  "type": "service_account",
  "project_id": "volunteer-vision",
  "private_key_id": "b57ed96e50d27a72125ab94abbc439c31c205902",
  "private_key": "-----BEGIN PRIVATE KEY-----\nMIIEvQIBADANBgkqhkiG9w0BAQEFAASCBKcwggSjAgEAAoIBAQCkeT+CuzZ+PUka\nmbF83QVoPLOpMYS0QkjKgLDjq9EhQ8faxhmdm72Y66BkwtNjMRanDU663YP+yb47\nTaGPDkVbfpt+EoaITolIxT/il7thFs2nUvGdrcbNj9ceRsZ0doAQHz7TqcPW6VOU\nQ4KURTnZipj8E7YK1s/2Dnip/lzcbcCo5CWzyZo9kyUQuaJqj6JZ8vzGUtlb5xlt\nJs1SopnyUyx5NZKM+xVvjPP9eEspsgjkJddSJQIvY8clEwzPl1R9Tpl37BXOSpjj\n8ISIOHShJXwCoAYiRkQSnwO4p8tkFoX44sc8OIUxeFcXMyOqHXl0ctj5fxHcWVB9\nChK5W6pBAgMBAAECggEANXiv07Y+vKL7EdlW0TPgDqfxdvfA34PPO3rER3h0GJ77\nKh6OdGWOKdms/yUx6UUryqqyZmEfCSYYoRoXhLVMijbqoX2vXEBANLbgErBmvGVX\n/eai47L795ekhdTXr0RZVSR7XgAKyeN4hzK9kKvC530+SHG2FOcKnEHPK+Ek2oqU\nkBCD4HX7m4Y3yoc9cMajAOi/ZIjFIoAOJDWtZKS+JP6KhQSDTpGIOGBWccLgQL/v\ndJSVEAJHCD1gN305oOfLmBsq8ux3kbm4gL5vEmGSul0rqs0yc/dr6Ss0ag50pylj\nYrAvWvCAsBksRgYtT8upyWEfXuw2mTRMnXaRh7ycKwKBgQDQgll5RhKPJO+7Jmxe\nvv4/+23mZlNFKuvWZhUBQphhNz+e0JSJSgiZMWTmZ8KrVDMS929sA3J5vxpa/0xh\n6P5uuPgiJ4dKinjPnhjRfd+24JuUePvx8PrPJuMhubiQyrnh/tUO+CTzorGseXP9\nnVQxdjPsD54L2kAjl4+qUPZf/wKBgQDJ70uWwnWUA64Y7jA2ULDP+4fE5zPUoAju\n7j+cCM4hbLMXALSXxx2JuxnV2HMXKqOGs1iRQYx8ktA26o3jhTpKYG3PjtTOEvsG\nfYDbOii3KyfwWFarH9s4EbfjA5Rzw/womswDvk1IGiQY93VGkz9oJSPK1Qmrm4O4\nuBhJWFX1vwKBgCfZUZpAzxk2WO6uiDWPUO4PclB/K9jjPBFMjyUfghnKQklq2Yhn\ncr88VmlGWUj/HYe5bDz7Z6xm3nWXpxRrP/0PMrTsUwnm7vHW6C1ZXiEIShOVD6mM\ngZKHfw8Z/HEHnYDYgAWNXRqG9GffClDk+Ys+aOvrjCv9uRZUR+un734nAoGBALoz\ntIC0mRS9+/gzEjPTXea6KixPgQSL+RDQkckAeYpqoA0S8nOOAFezNhRw/VccUyNv\nFrkCN1fbTLGGwQVOITzaBAfCzcmjyOLoMTx1OXwFCFPgMTKkMlFWTTjAYVAKJOcQ\nLhU5kittJ2H6NKK6Plp6/LEYlk0uHlzjLEndcY4jAoGACQYh10vBd6rptduzMa+a\nB1yGCKeENP/nxosn5TaDsK0eW5fvMwrPf2XlAwCgp8ZRPsv0Bp4h6/j5LryCgygp\nSOdDv2nvg90FwnqOSDyBsRBymIerH3C1NCTPUnxppu1knWgzEdlUlWeh5fhgl9mc\nQWfvBZcn9hNf0q9BYY6t+mw=\n-----END PRIVATE KEY-----\n",
  "client_email": "firebase-adminsdk-ae4ua@volunteer-vision.iam.gserviceaccount.com",
  "client_id": "104743389683725987715",
  "auth_uri": "https://accounts.google.com/o/oauth2/auth",
  "token_uri": "https://oauth2.googleapis.com/token",
  "auth_provider_x509_cert_url": "https://www.googleapis.com/oauth2/v1/certs",
  "client_x509_cert_url": "https://www.googleapis.com/robot/v1/metadata/x509/firebase-adminsdk-ae4ua%40volunteer-vision.iam.gserviceaccount.com"
}